<?xml version="1.0" encoding="UTF-8" standalone="no"?>
<!-- Created with Inkscape (http://www.inkscape.org/) -->
<svg
   xmlns:dc="http://purl.org/dc/elements/1.1/"
   xmlns:cc="http://web.resource.org/cc/"
   xmlns:rdf="http://www.w3.org/1999/02/22-rdf-syntax-ns#"
   xmlns:svg="http://www.w3.org/2000/svg"
   xmlns="http://www.w3.org/2000/svg"
   xmlns:sodipodi="http://inkscape.sourceforge.net/DTD/sodipodi-0.dtd"
   xmlns:inkscape="http://www.inkscape.org/namespaces/inkscape"
   width="1280"
   height="800"
   id="svg2"
   sodipodi:version="0.32"
   inkscape:version="0.43"
   version="1.0"
   sodipodi:docbase="/home/flossgeek/Desktop"
   sodipodi:docname="layoutPlanSecondary0.4.svg">
  <defs
     id="defs4">
    <linearGradient
       id="linearGradient3121">
      <stop
         style="stop-color:#dfdfff;stop-opacity:1;"
         offset="0"
         id="stop3123" />
      <stop
         style="stop-color:#5f96b6;stop-opacity:1;"
         offset="1"
         id="stop3125" />
    </linearGradient>
  </defs>
  <sodipodi:namedview
     id="base"
     pagecolor="#ffffff"
     bordercolor="#666666"
     borderopacity="1.0"
     inkscape:pageopacity="0.0"
     inkscape:pageshadow="2"
     inkscape:zoom="0.70710678"
     inkscape:cx="591.77895"
     inkscape:cy="389.75454"
     inkscape:document-units="px"
     inkscape:current-layer="layer3"
     showgrid="false"
     inkscape:window-width="1270"
     inkscape:window-height="870"
     inkscape:window-x="205"
     inkscape:window-y="54"
     showguides="true"
     inkscape:guide-bbox="true" />
  <metadata
     id="metadata7">
    <rdf:RDF>
      <cc:Work
         rdf:about="">
        <dc:format>image/svg+xml</dc:format>
        <dc:type
           rdf:resource="http://purl.org/dc/dcmitype/StillImage" />
      </cc:Work>
    </rdf:RDF>
  </metadata>
  <g
     inkscape:groupmode="layer"
     id="layer4"
     inkscape:label="background" />
  <g
     inkscape:label="components"
     inkscape:groupmode="layer"
     id="layer1">
    <rect
       style="fill:#cccccc;fill-opacity:1;fill-rule:evenodd;stroke:none;stroke-width:1.4978931;stroke-linecap:butt;stroke-linejoin:miter;stroke-miterlimit:4;stroke-dasharray:none;stroke-opacity:1"
       id="rect1360"
       width="1280"
       height="24.368231"
       x="0"
       y="0.065884508" />
    <rect
       style="fill:none;fill-opacity:1;stroke:#000000;stroke-width:0.22366704;stroke-miterlimit:4;stroke-dasharray:none;stroke-opacity:1"
       id="rect1373"
       width="1279.7764"
       height="43"
       x="0.11183352"
       y="24.607145" />
    <rect
       style="fill:#cccccc;fill-opacity:1;fill-rule:evenodd;stroke:none;stroke-width:1.4978931;stroke-linecap:butt;stroke-linejoin:miter;stroke-miterlimit:4;stroke-dasharray:none;stroke-opacity:1"
       id="rect1647"
       width="1280"
       height="24.368231"
       x="0"
       y="68.065887" />
    <text
       xml:space="preserve"
       style="font-size:12px;font-style:normal;font-weight:normal;fill:#000000;fill-opacity:1;stroke:none;stroke-width:1px;stroke-linecap:butt;stroke-linejoin:miter;stroke-opacity:1;font-family:Bitstream Vera Sans"
       x="351"
       y="84.585785"
       id="text1649"><tspan
         sodipodi:role="line"
         id="tspan1651"
         x="351"
         y="84.585785">Take the Tour - Products - Success Stories - Get Started - Get Involved - About</tspan></text>
    <text
       xml:space="preserve"
       style="font-size:12px;font-style:normal;font-weight:normal;fill:#000000;fill-opacity:1;stroke:none;stroke-width:1px;stroke-linecap:butt;stroke-linejoin:miter;stroke-opacity:1;font-family:Bitstream Vera Sans"
       x="385.71429"
       y="83.571434"
       id="text1653"><tspan
         sodipodi:role="line"
         id="tspan1655"
         x="385.71429"
         y="83.571434">  </tspan></text>
    <text
       xml:space="preserve"
       style="font-size:12px;font-style:normal;font-weight:normal;fill:#000000;fill-opacity:1;stroke:none;stroke-width:1px;stroke-linecap:butt;stroke-linejoin:miter;stroke-opacity:1;font-family:Bitstream Vera Sans"
       x="116"
       y="210"
       id="text1405"><tspan
         sodipodi:role="line"
         id="tspan1407"
         x="116"
         y="210">Main body </tspan><tspan
         sodipodi:role="line"
         x="116"
         y="225"
         id="tspan1409">Text Area</tspan><tspan
         sodipodi:role="line"
         x="116"
         y="240"
         id="tspan4170">Fixed Width</tspan></text>
    <rect
       style="fill:#cccccc;fill-opacity:1;fill-rule:evenodd;stroke:none;stroke-width:1.4978931;stroke-linecap:butt;stroke-linejoin:miter;stroke-miterlimit:4;stroke-dasharray:none;stroke-opacity:1"
       id="rect3154"
       width="1280"
       height="24.368231"
       x="0"
       y="94.065887" />
  </g>
  <g
     inkscape:groupmode="layer"
     id="layer3"
     inkscape:label="labels">
    <text
       xml:space="preserve"
       style="font-size:12px;font-style:normal;font-weight:normal;fill:#000000;fill-opacity:1;stroke:none;stroke-width:1px;stroke-linecap:butt;stroke-linejoin:miter;stroke-opacity:1;font-family:Bitstream Vera Sans"
       x="107.32617"
       y="-39.485939"
       id="text3337"><tspan
         sodipodi:role="line"
         id="tspan3339"
         x="107.32617"
         y="-39.485939">General Navigation Bar (links to subsites)which would contain a deco strip underneath</tspan></text>
    <path
       style="fill:none;fill-opacity:0.75;fill-rule:evenodd;stroke:#000000;stroke-width:1px;stroke-linecap:butt;stroke-linejoin:miter;stroke-opacity:1"
       d="M 178.47722,-37 L 178.47722,13"
       id="path2199" />
    <path
       style="fill:none;fill-opacity:0.75;fill-rule:evenodd;stroke:#000000;stroke-width:1px;stroke-linecap:butt;stroke-linejoin:miter;stroke-opacity:1"
       d="M 188.47722,797 L 188.47722,847"
       id="path2452" />
    <text
       xml:space="preserve"
       style="font-size:12px;font-style:normal;font-weight:normal;fill:#000000;fill-opacity:1;stroke:none;stroke-width:1px;stroke-linecap:butt;stroke-linejoin:miter;stroke-opacity:1;font-family:Bitstream Vera Sans"
       x="103.31982"
       y="861.7005"
       id="text2454"><tspan
         sodipodi:role="line"
         id="tspan2456"
         x="103.31982"
         y="861.7005">Main Secondary Page Footer</tspan></text>
    <rect
       style="fill:#ffffff;fill-opacity:1;stroke:#000000;stroke-opacity:1"
       id="rect2508"
       width="88.107315"
       height="16.162441"
       x="853.617"
       y="72.151306" />
    <g
       id="g1426"
       transform="translate(58,40)">
      <path
         id="path3383"
         d="M 798.47722,-63.797876 L 798.47722,34.797876"
         style="fill:none;fill-opacity:0.75;fill-rule:evenodd;stroke:#000000;stroke-width:1.40424895px;stroke-linecap:butt;stroke-linejoin:miter;stroke-opacity:1" />
      <text
         id="text3385"
         y="-54.538242"
         x="807.21838"
         style="font-size:12px;font-style:normal;font-weight:normal;fill:#000000;fill-opacity:1;stroke:none;stroke-width:1px;stroke-linecap:butt;stroke-linejoin:miter;stroke-opacity:1;font-family:Bitstream Vera Sans"
         xml:space="preserve"><tspan
           y="-54.538242"
           x="807.21838"
           id="tspan3387"
           sodipodi:role="line">Search</tspan></text>
    </g>
    <g
       id="g4172"
       transform="matrix(0.809765,0,0,1,465.0157,68.58936)">
      <rect
         y="3.617749"
         x="591.74146"
         height="16.162441"
         width="138.7514"
         id="rect3389"
         style="fill:#ffffff;fill-opacity:1;stroke:#000000;stroke-opacity:1" />
      <g
         transform="translate(-48.00714,-69.88225)"
         id="g4052">
        <rect
           style="fill:#ffffff;fill-opacity:1;stroke:#000000;stroke-opacity:1"
           id="rect3391"
           width="14.388786"
           height="16.162441"
           x="778.55939"
           y="73.5" />
        <path
           sodipodi:type="star"
           style="fill:#000000;fill-opacity:1;stroke:#000000;stroke-opacity:1"
           id="path5143"
           sodipodi:sides="3"
           sodipodi:cx="307.08636"
           sodipodi:cy="86.842506"
           sodipodi:r1="6.0609155"
           sodipodi:r2="3.0304575"
           sodipodi:arg1="1.5707963"
           sodipodi:arg2="2.6179939"
           inkscape:flatsided="true"
           inkscape:rounded="0"
           inkscape:randomized="0"
           d="M 307.08636,92.903422 L 301.83746,83.812049 L 312.33527,83.812049 L 307.08636,92.903422 z "
           transform="matrix(0.503926,0,0,0.501355,630.5784,37.46168)" />
      </g>
    </g>
    <path
       style="fill:none;fill-opacity:0.75;fill-rule:evenodd;stroke:#000000;stroke-width:1.10411584;stroke-linecap:butt;stroke-linejoin:miter;stroke-miterlimit:4;stroke-dasharray:none;stroke-opacity:1"
       d="M 1010.6634,-6.007794 L 1010.6634,77.88809"
       id="path5145" />
    <text
       xml:space="preserve"
       style="font-size:12px;font-style:normal;font-weight:normal;fill:#000000;fill-opacity:1;stroke:none;stroke-width:1px;stroke-linecap:butt;stroke-linejoin:miter;stroke-opacity:1;font-family:Bitstream Vera Sans"
       x="966.19812"
       y="-9.7311401"
       id="text5147"><tspan
         sodipodi:role="line"
         id="tspan5149"
         x="966.19812"
         y="-9.7311401">Language  Drop Down Selection</tspan></text>
    <text
       xml:space="preserve"
       style="font-size:12px;font-style:normal;font-variant:normal;font-weight:normal;font-stretch:normal;text-align:start;line-height:125%;writing-mode:lr-tb;text-anchor:start;fill:#000000;fill-opacity:1;stroke:none;stroke-width:1px;stroke-linecap:butt;stroke-linejoin:miter;stroke-opacity:1;font-family:Bitstream Vera Sans"
       x="787.82227"
       y="16.000008"
       id="text1625"
       sodipodi:linespacing="125%"><tspan
         sodipodi:role="line"
         id="tspan1629"
         x="787.82227"
         y="16.000008">News         Projects         Art          Support          Development          Community</tspan></text>
    <path
       style="fill:none;fill-opacity:0.75;fill-rule:evenodd;stroke:#000000;stroke-width:1px;stroke-linecap:butt;stroke-linejoin:miter;stroke-opacity:1"
       d="M -7.5,80.5 L -57.5,80.5"
       id="path7810" />
    <text
       xml:space="preserve"
       style="font-size:12px;font-style:normal;font-weight:normal;fill:#000000;fill-opacity:1;stroke:none;stroke-width:1px;stroke-linecap:butt;stroke-linejoin:miter;stroke-opacity:1;font-family:Bitstream Vera Sans"
       x="-273"
       y="84"
       id="text7812"><tspan
         sodipodi:role="line"
         x="-273"
         y="84"
         id="tspan7816">Primary Nav Bar (links to sections)</tspan></text>
    <g
       id="g4075"
       transform="matrix(0.5,0,0,0.5,381.7639,362.1979)">
      <rect
         ry="0"
         rx="0"
         y="717.52643"
         x="538.15503"
         height="20.077778"
         width="20"
         id="rect2320"
         style="fill:#aeaeae;fill-opacity:1;stroke:none;stroke-width:1.01300001;stroke-miterlimit:4;stroke-dasharray:none;stroke-opacity:1" />
      <path
         transform="translate(624,216)"
         d="M -80.807887,517.59545 L -80.807887,504.40455 L -69.384227,511 L -80.807887,517.59545 z "
         inkscape:randomized="0"
         inkscape:rounded="0"
         inkscape:flatsided="true"
         sodipodi:arg2="3.1415927"
         sodipodi:arg1="2.0943951"
         sodipodi:r2="3.8078866"
         sodipodi:r1="7.6157732"
         sodipodi:cy="511"
         sodipodi:cx="-77"
         sodipodi:sides="3"
         id="path2322"
         style="fill:#858585;fill-opacity:1;stroke:none;stroke-width:1.01300001;stroke-miterlimit:4;stroke-dasharray:none;stroke-opacity:1"
         sodipodi:type="star" />
    </g>
    <g
       id="g4079"
       transform="matrix(0.5,0,0,0.5,455.0775,362.1979)">
      <rect
         ry="0"
         rx="0"
         y="717.52643"
         x="258.15503"
         height="20.077778"
         width="20"
         id="rect1437"
         style="fill:#aeaeae;fill-opacity:1;stroke:none;stroke-width:1.01300001;stroke-miterlimit:4;stroke-dasharray:none;stroke-opacity:1" />
      <path
         transform="matrix(-1,0,0,-1,191.8078,1238)"
         d="M -80.807887,517.59545 L -80.807887,504.40455 L -69.384227,511 L -80.807887,517.59545 z "
         inkscape:randomized="0"
         inkscape:rounded="0"
         inkscape:flatsided="true"
         sodipodi:arg2="3.1415927"
         sodipodi:arg1="2.0943951"
         sodipodi:r2="3.8078866"
         sodipodi:r1="7.6157732"
         sodipodi:cy="511"
         sodipodi:cx="-77"
         sodipodi:sides="3"
         id="path4070"
         style="fill:#858585;fill-opacity:1;stroke:none;stroke-width:1.01300001;stroke-miterlimit:4;stroke-dasharray:none;stroke-opacity:1"
         sodipodi:type="star" />
    </g>
    <text
       xml:space="preserve"
       style="font-size:12px;font-style:normal;font-weight:normal;line-height:100%;fill:#000000;fill-opacity:1;stroke:none;stroke-width:1px;stroke-linecap:butt;stroke-linejoin:miter;stroke-opacity:1;font-family:Bitstream Vera Sans"
       x="603"
       y="729.82837"
       id="text4083"
       sodipodi:linespacing="100%"><tspan
         sodipodi:role="line"
         id="tspan4085"
         x="603"
         y="729.82837"><tspan
   style="font-size:12px;font-style:normal;font-variant:normal;font-weight:normal;font-stretch:normal;text-align:start;line-height:125%;writing-mode:lr-tb;text-anchor:start;font-family:Bitstream Vera Sans"
   id="tspan4087">1</tspan><tspan
   style="font-size:12px;font-style:normal;font-variant:normal;font-weight:bold;font-stretch:normal;text-align:start;line-height:100%;writing-mode:lr-tb;text-anchor:start;font-family:Bitstream Vera Sans"
   id="tspan4091">  2</tspan>  3</tspan></text>
    <rect
       style="opacity:0.80213904;fill:#cccccc;fill-opacity:1;stroke:none;stroke-width:1.01300001;stroke-miterlimit:4;stroke-dasharray:none;stroke-opacity:1"
       id="rect1461"
       width="750"
       height="565.31372"
       x="251.27208"
       y="145.17157"
       rx="25.031757"
       ry="27.842724" />
    <path
       style="fill:none;fill-opacity:0.75;fill-rule:evenodd;stroke:#000000;stroke-width:1px;stroke-linecap:butt;stroke-linejoin:miter;stroke-opacity:1"
       d="M 254.5,220.5 L 204.5,220.5"
       id="path1463" />
    <path
       style="fill:none;fill-opacity:0.75;fill-rule:evenodd;stroke:#000000;stroke-width:1px;stroke-linecap:butt;stroke-linejoin:miter;stroke-opacity:1"
       d="M 12.5,106.5 L -37.5,106.5"
       id="path3156" />
    <text
       xml:space="preserve"
       style="font-size:12px;font-style:normal;font-weight:normal;fill:#000000;fill-opacity:1;stroke:none;stroke-width:1px;stroke-linecap:butt;stroke-linejoin:miter;stroke-opacity:1;font-family:Bitstream Vera Sans"
       x="-292.5"
       y="110"
       id="text3158"><tspan
         sodipodi:role="line"
         x="-292.5"
         y="110"
         id="tspan3162">Secondary Nav Bar - (Page Section Links)</tspan></text>
    <text
       xml:space="preserve"
       style="font-size:12px;font-style:normal;font-weight:normal;fill:#000000;fill-opacity:1;stroke:none;stroke-width:1px;stroke-linecap:butt;stroke-linejoin:miter;stroke-opacity:1;font-family:Bitstream Vera Sans"
       x="370"
       y="111"
       id="text4056"><tspan
         sodipodi:role="line"
         id="tspan4058"
         x="370"
         y="111">Link1            Link2             Link3             Link4             Link5             Link6</tspan></text>
    <rect
       style="opacity:1;fill:#999999;fill-opacity:1;stroke:none;stroke-width:0.5;stroke-miterlimit:4;stroke-dasharray:none;stroke-dashoffset:0;stroke-opacity:1"
       id="rect4060"
       width="200"
       height="165"
       x="801.12994"
       y="147"
       rx="25.031755"
       ry="27.842724" />
    <path
       style="fill:none;fill-opacity:0.75;fill-rule:evenodd;stroke:#000000;stroke-width:1px;stroke-linecap:butt;stroke-linejoin:miter;stroke-opacity:1"
       d="M 1038.5,224.5 L 988.5,224.5"
       id="path9304" />
    <text
       xml:space="preserve"
       style="font-size:12px;font-style:normal;font-weight:normal;fill:#000000;fill-opacity:1;stroke:none;stroke-width:1px;stroke-linecap:butt;stroke-linejoin:miter;stroke-opacity:1;font-family:Bitstream Vera Sans"
       x="1053"
       y="222"
       id="text9306"><tspan
         sodipodi:role="line"
         id="tspan9308"
         x="1053"
         y="222">Related Links</tspan><tspan
         sodipodi:role="line"
         x="1053"
         y="237"
         id="tspan9310">Block</tspan></text>
  </g>
  <g
     inkscape:groupmode="layer"
     id="layer2"
     inkscape:label="logo">
    <rect
       style="opacity:0.39037434;fill:#ffeb38;fill-opacity:1;stroke:none;stroke-width:1.01300001;stroke-miterlimit:4;stroke-dasharray:none;stroke-opacity:1"
       id="rect4991"
       width="186.67619"
       height="74.246216"
       x="531.91382"
       y="852.20459"
       ry="20.506096"
       rx="20.506096" />
    <rect
       style="fill:#cccccc;fill-opacity:1;fill-rule:evenodd;stroke:none;stroke-width:1.4978931;stroke-linecap:butt;stroke-linejoin:miter;stroke-miterlimit:4;stroke-dasharray:none;stroke-opacity:1"
       id="rect2201"
       width="1280"
       height="60"
       x="0"
       y="739.42902" />
    <g
       id="g3963"
       transform="matrix(9.554519e-2,0,0,9.554519e-2,77.9447,734.3928)">
      <g
         id="g3771"
         transform="matrix(2.914897,0,0,2.914897,-717.5904,128.5015)"
         style="fill:#000000;fill-opacity:1;fill-rule:nonzero;stroke:none;stroke-miterlimit:4"
         inkscape:export-filename="/home/duffy/Desktop/gnome_logo_horiz.png"
         inkscape:export-xdpi="72.000000"
         inkscape:export-ydpi="72.000000">
        <g
           style="fill:#000000;fill-opacity:1"
           id="g3773">
          <path
             style="fill:#000000;fill-opacity:1"
             d="M 86.068,0 C 61.466,0 56.851,35.041 70.691,35.041 C 84.529,35.041 110.671,0 86.068,0 z "
             id="path3775" />
          <path
             style="fill:#000000;fill-opacity:1"
             d="M 45.217,30.699 C 52.586,31.149 60.671,2.577 46.821,4.374 C 32.976,6.171 37.845,30.249 45.217,30.699 z "
             id="path3777" />
          <path
             style="fill:#000000;fill-opacity:1"
             d="M 11.445,48.453 C 16.686,46.146 12.12,23.581 3.208,29.735 C -5.7,35.89 6.204,50.759 11.445,48.453 z "
             id="path3779" />
          <path
             style="fill:#000000;fill-opacity:1"
             d="M 26.212,36.642 C 32.451,35.37 32.793,9.778 21.667,14.369 C 10.539,18.961 19.978,37.916 26.212,36.642 L 26.212,36.642 z "
             id="path3781" />
          <path
             style="fill:#000000;fill-opacity:1"
             id="path3783"
             d="M 58.791,93.913 C 59.898,102.367 52.589,106.542 45.431,101.092 C 22.644,83.743 83.16,75.088 79.171,51.386 C 75.86,31.712 15.495,37.769 8.621,68.553 C 3.968,89.374 27.774,118.26 52.614,118.26 C 64.834,118.26 78.929,107.226 81.566,93.248 C 83.58,82.589 57.867,86.86 58.791,93.913 L 58.791,93.913 z " />
        </g>
      </g>
      <g
         transform="matrix(1.098291,0,0,1.098291,41.06056,-50.07504)"
         id="g3956">
        <path
           style="font-size:148.699646px;font-style:normal;font-variant:normal;font-weight:bold;font-stretch:normal;text-align:start;line-height:125%;writing-mode:lr-tb;text-anchor:start;fill:#000000;fill-opacity:1;stroke:none;stroke-width:1pt;stroke-linecap:butt;stroke-linejoin:miter;stroke-opacity:1;font-family:Bitstream Vera Sans"
           d="M -565.99523,509.46063 C -574.08254,509.67855 -580.46917,512.58511 -585.16594,518.15929 C -590.02979,523.9603 -592.47618,531.9758 -592.47618,542.19791 C -592.47618,552.39185 -590.02967,560.38536 -585.16594,566.18637 C -580.27833,571.98737 -573.56779,574.88503 -565.0083,574.88503 C -556.4252,574.88503 -549.6978,571.98737 -544.83394,566.18637 C -539.97021,560.38536 -537.54036,552.39185 -537.54041,542.19791 C -537.54046,531.9758 -539.97021,523.9603 -544.83394,518.15929 C -549.6978,512.35854 -556.42525,509.46063 -565.0083,509.46063 C -565.34264,509.46063 -565.6665,509.45174 -565.99523,509.46063 z M -565.39302,521.23732 C -565.26375,521.23386 -565.13945,521.23732 -565.0083,521.23732 C -560.78832,521.23732 -557.51834,523.06342 -555.2055,526.72429 C -552.89284,530.38515 -551.72606,535.55217 -551.72601,542.19791 C -551.72601,548.81548 -552.89293,553.94395 -555.2055,557.60482 C -557.51824,561.26568 -560.78836,563.10834 -565.0083,563.10834 C -569.20462,563.10834 -572.44813,561.26568 -574.76087,557.60482 C -577.07361,553.94395 -578.24031,548.81548 -578.24036,542.19791 C -578.24036,535.55217 -577.07352,530.38515 -574.76087,526.72429 C -572.52052,523.17782 -569.40124,521.34825 -565.39302,521.23732 z "
           id="path3787" />
        <path
           style="font-size:148.699646px;font-style:normal;font-variant:normal;font-weight:bold;font-stretch:normal;text-align:start;line-height:125%;writing-mode:lr-tb;text-anchor:start;fill:#000000;fill-opacity:1;stroke:none;stroke-width:1pt;stroke-linecap:butt;stroke-linejoin:miter;stroke-opacity:1;font-family:Bitstream Vera Sans"
           d="M -657.35432,568.97161 C -664.47794,574.95396 -675.07651,574.88527 -679.49184,574.88527 C -688.38504,574.88527 -695.43039,571.95648 -700.62797,566.09915 C -705.82562,560.2139 -708.42437,552.24459 -708.42437,542.19124 C -708.42437,532.02546 -705.77791,524.02799 -700.48492,518.19883 C -695.19192,512.36991 -687.94394,509.4552 -678.74079,509.4552 C -675.18834,509.4552 -671.79088,509.84953 -668.54825,510.63793 C -665.28187,511.42634 -662.20622,512.59499 -659.32128,514.14388 L -663.02615,525.09658 C -664.648,524.20885 -666.50495,523.33372 -668.22637,522.71851 C -671.15899,521.73294 -674.10349,521.24028 -677.05988,521.24028 C -682.54367,521.24028 -686.77569,523.05651 -689.75589,526.6892 C -692.71238,530.29374 -694.19059,535.461 -694.19059,542.19124 C -694.19059,548.86539 -692.76009,554.01857 -689.89892,557.65127 C -687.03793,561.28397 -682.73824,563.10019 -677.7037,563.10019 C -672.58894,563.10019 -669.42101,561.81097 -667.73144,560.45257 L -667.73144,549.54113 L -678.81231,549.54113 L -678.81231,538.64304 L -657.35432,538.64304"
           id="path3789"
           sodipodi:nodetypes="cscsssccccsssszccccc" />
        <path
           style="font-size:148.699646px;font-style:normal;font-variant:normal;font-weight:bold;font-stretch:normal;text-align:start;line-height:125%;writing-mode:lr-tb;text-anchor:start;fill:#000000;fill-opacity:1;stroke:none;stroke-width:1pt;stroke-linecap:butt;stroke-linejoin:miter;stroke-opacity:1;font-family:Bitstream Vera Sans"
           d="M -528.50252,510.59568 L -510.97842,510.59568 L -498.8189,549.96634 L -486.58785,510.59568 L -471.77604,510.59568 L -465.08472,573.66029 L -478.10259,573.66029 L -482.11739,534.22539 L -494.41996,573.8493 L -503.14624,573.8493 L -515.44887,532.887 L -519.46366,573.66029 L -532.51731,573.66029 L -525.82599,510.59568"
           id="path3793"
           sodipodi:nodetypes="cccccccccccccc" />
        <path
           style="font-size:148.699646px;font-style:normal;font-variant:normal;font-weight:bold;font-stretch:normal;text-align:start;line-height:125%;writing-mode:lr-tb;text-anchor:start;fill:#000000;fill-opacity:1;stroke:none;stroke-width:1pt;stroke-linecap:butt;stroke-linejoin:miter;stroke-opacity:1;font-family:Bitstream Vera Sans"
           d="M -455.68828,510.59568 L -418.53017,510.59568 L -418.53017,522.88751 L -441.91945,522.88751 L -441.91945,535.96848 L -423.93976,535.96848 L -423.93976,546.92217 L -441.91945,546.92217 L -441.91945,561.36846 L -417.74337,561.36846 L -417.74337,573.66029 L -455.68828,573.66029 L -455.68828,510.59568"
           id="path3795"
           sodipodi:nodetypes="ccccccccccccc" />
        <path
           style="font-size:148.699646px;font-style:normal;font-variant:normal;font-weight:bold;font-stretch:normal;text-align:start;line-height:125%;writing-mode:lr-tb;text-anchor:start;fill:#000000;fill-opacity:1;stroke:none;stroke-width:1pt;stroke-linecap:butt;stroke-linejoin:miter;stroke-opacity:1;font-family:Bitstream Vera Sans"
           d="M -647.94283,510.59568 L -639.25593,510.59568 L -611.80678,548.49651 L -611.80678,510.59568 L -600.09145,510.59568 L -600.09145,573.66029 L -608.77835,573.66029 L -636.22745,535.75946 L -636.22745,573.66029 L -647.94283,573.66029 L -647.94283,510.59568"
           id="path3791"
           sodipodi:nodetypes="ccccccccccc" />
      </g>
      <text
         xml:space="preserve"
         style="font-size:25.88836098px;font-style:normal;font-weight:normal;fill:#000000;fill-opacity:1;stroke:none;stroke-width:1pt;stroke-linecap:butt;stroke-linejoin:miter;stroke-opacity:1;font-family:Bitstream Vera Sans"
         x="-406.52405"
         y="527.92285"
         id="text3797"><tspan
           sodipodi:role="line"
           id="tspan3799"
           x="-406.52405"
           y="527.92285"
           style="letter-spacing:9.33191109"><tspan
             id="tspan3801"
             style="letter-spacing:0.21289776">TM</tspan></tspan></text>
    </g>
    <g
       id="g4019"
       transform="matrix(0.176673,0,0,0.176673,135.2077,-15.53579)">
      <g
         id="g4021"
         transform="matrix(2.914897,0,0,2.914897,-717.5904,128.5015)"
         style="fill:#000000;fill-opacity:1;fill-rule:nonzero;stroke:none;stroke-miterlimit:4"
         inkscape:export-filename="/home/duffy/Desktop/gnome_logo_horiz.png"
         inkscape:export-xdpi="72.000000"
         inkscape:export-ydpi="72.000000">
        <g
           style="fill:#000000;fill-opacity:1"
           id="g4023">
          <path
             style="fill:#000000;fill-opacity:1"
             d="M 86.068,0 C 61.466,0 56.851,35.041 70.691,35.041 C 84.529,35.041 110.671,0 86.068,0 z "
             id="path4025" />
          <path
             style="fill:#000000;fill-opacity:1"
             d="M 45.217,30.699 C 52.586,31.149 60.671,2.577 46.821,4.374 C 32.976,6.171 37.845,30.249 45.217,30.699 z "
             id="path4027" />
          <path
             style="fill:#000000;fill-opacity:1"
             d="M 11.445,48.453 C 16.686,46.146 12.12,23.581 3.208,29.735 C -5.7,35.89 6.204,50.759 11.445,48.453 z "
             id="path4029" />
          <path
             style="fill:#000000;fill-opacity:1"
             d="M 26.212,36.642 C 32.451,35.37 32.793,9.778 21.667,14.369 C 10.539,18.961 19.978,37.916 26.212,36.642 L 26.212,36.642 z "
             id="path4031" />
          <path
             style="fill:#000000;fill-opacity:1"
             id="path4033"
             d="M 58.791,93.913 C 59.898,102.367 52.589,106.542 45.431,101.092 C 22.644,83.743 83.16,75.088 79.171,51.386 C 75.86,31.712 15.495,37.769 8.621,68.553 C 3.968,89.374 27.774,118.26 52.614,118.26 C 64.834,118.26 78.929,107.226 81.566,93.248 C 83.58,82.589 57.867,86.86 58.791,93.913 L 58.791,93.913 z " />
        </g>
      </g>
      <g
         transform="matrix(1.098291,0,0,1.098291,41.06056,-50.07504)"
         id="g4035">
        <path
           style="font-size:148.699646px;font-style:normal;font-variant:normal;font-weight:bold;font-stretch:normal;text-align:start;line-height:125%;writing-mode:lr-tb;text-anchor:start;fill:#000000;fill-opacity:1;stroke:none;stroke-width:1pt;stroke-linecap:butt;stroke-linejoin:miter;stroke-opacity:1;font-family:Bitstream Vera Sans"
           d="M -565.99523,509.46063 C -574.08254,509.67855 -580.46917,512.58511 -585.16594,518.15929 C -590.02979,523.9603 -592.47618,531.9758 -592.47618,542.19791 C -592.47618,552.39185 -590.02967,560.38536 -585.16594,566.18637 C -580.27833,571.98737 -573.56779,574.88503 -565.0083,574.88503 C -556.4252,574.88503 -549.6978,571.98737 -544.83394,566.18637 C -539.97021,560.38536 -537.54036,552.39185 -537.54041,542.19791 C -537.54046,531.9758 -539.97021,523.9603 -544.83394,518.15929 C -549.6978,512.35854 -556.42525,509.46063 -565.0083,509.46063 C -565.34264,509.46063 -565.6665,509.45174 -565.99523,509.46063 z M -565.39302,521.23732 C -565.26375,521.23386 -565.13945,521.23732 -565.0083,521.23732 C -560.78832,521.23732 -557.51834,523.06342 -555.2055,526.72429 C -552.89284,530.38515 -551.72606,535.55217 -551.72601,542.19791 C -551.72601,548.81548 -552.89293,553.94395 -555.2055,557.60482 C -557.51824,561.26568 -560.78836,563.10834 -565.0083,563.10834 C -569.20462,563.10834 -572.44813,561.26568 -574.76087,557.60482 C -577.07361,553.94395 -578.24031,548.81548 -578.24036,542.19791 C -578.24036,535.55217 -577.07352,530.38515 -574.76087,526.72429 C -572.52052,523.17782 -569.40124,521.34825 -565.39302,521.23732 z "
           id="path4037" />
        <path
           style="font-size:148.699646px;font-style:normal;font-variant:normal;font-weight:bold;font-stretch:normal;text-align:start;line-height:125%;writing-mode:lr-tb;text-anchor:start;fill:#000000;fill-opacity:1;stroke:none;stroke-width:1pt;stroke-linecap:butt;stroke-linejoin:miter;stroke-opacity:1;font-family:Bitstream Vera Sans"
           d="M -657.35432,568.97161 C -664.47794,574.95396 -675.07651,574.88527 -679.49184,574.88527 C -688.38504,574.88527 -695.43039,571.95648 -700.62797,566.09915 C -705.82562,560.2139 -708.42437,552.24459 -708.42437,542.19124 C -708.42437,532.02546 -705.77791,524.02799 -700.48492,518.19883 C -695.19192,512.36991 -687.94394,509.4552 -678.74079,509.4552 C -675.18834,509.4552 -671.79088,509.84953 -668.54825,510.63793 C -665.28187,511.42634 -662.20622,512.59499 -659.32128,514.14388 L -663.02615,525.09658 C -664.648,524.20885 -666.50495,523.33372 -668.22637,522.71851 C -671.15899,521.73294 -674.10349,521.24028 -677.05988,521.24028 C -682.54367,521.24028 -686.77569,523.05651 -689.75589,526.6892 C -692.71238,530.29374 -694.19059,535.461 -694.19059,542.19124 C -694.19059,548.86539 -692.76009,554.01857 -689.89892,557.65127 C -687.03793,561.28397 -682.73824,563.10019 -677.7037,563.10019 C -672.58894,563.10019 -669.42101,561.81097 -667.73144,560.45257 L -667.73144,549.54113 L -678.81231,549.54113 L -678.81231,538.64304 L -657.35432,538.64304"
           id="path4039"
           sodipodi:nodetypes="cscsssccccsssszccccc" />
        <path
           style="font-size:148.699646px;font-style:normal;font-variant:normal;font-weight:bold;font-stretch:normal;text-align:start;line-height:125%;writing-mode:lr-tb;text-anchor:start;fill:#000000;fill-opacity:1;stroke:none;stroke-width:1pt;stroke-linecap:butt;stroke-linejoin:miter;stroke-opacity:1;font-family:Bitstream Vera Sans"
           d="M -528.50252,510.59568 L -510.97842,510.59568 L -498.8189,549.96634 L -486.58785,510.59568 L -471.77604,510.59568 L -465.08472,573.66029 L -478.10259,573.66029 L -482.11739,534.22539 L -494.41996,573.8493 L -503.14624,573.8493 L -515.44887,532.887 L -519.46366,573.66029 L -532.51731,573.66029 L -525.82599,510.59568"
           id="path4041"
           sodipodi:nodetypes="cccccccccccccc" />
        <path
           style="font-size:148.699646px;font-style:normal;font-variant:normal;font-weight:bold;font-stretch:normal;text-align:start;line-height:125%;writing-mode:lr-tb;text-anchor:start;fill:#000000;fill-opacity:1;stroke:none;stroke-width:1pt;stroke-linecap:butt;stroke-linejoin:miter;stroke-opacity:1;font-family:Bitstream Vera Sans"
           d="M -455.68828,510.59568 L -418.53017,510.59568 L -418.53017,522.88751 L -441.91945,522.88751 L -441.91945,535.96848 L -423.93976,535.96848 L -423.93976,546.92217 L -441.91945,546.92217 L -441.91945,561.36846 L -417.74337,561.36846 L -417.74337,573.66029 L -455.68828,573.66029 L -455.68828,510.59568"
           id="path4043"
           sodipodi:nodetypes="ccccccccccccc" />
        <path
           style="font-size:148.699646px;font-style:normal;font-variant:normal;font-weight:bold;font-stretch:normal;text-align:start;line-height:125%;writing-mode:lr-tb;text-anchor:start;fill:#000000;fill-opacity:1;stroke:none;stroke-width:1pt;stroke-linecap:butt;stroke-linejoin:miter;stroke-opacity:1;font-family:Bitstream Vera Sans"
           d="M -647.94283,510.59568 L -639.25593,510.59568 L -611.80678,548.49651 L -611.80678,510.59568 L -600.09145,510.59568 L -600.09145,573.66029 L -608.77835,573.66029 L -636.22745,535.75946 L -636.22745,573.66029 L -647.94283,573.66029 L -647.94283,510.59568"
           id="path4045"
           sodipodi:nodetypes="ccccccccccc" />
      </g>
      <text
         xml:space="preserve"
         style="font-size:25.88836098px;font-style:normal;font-weight:normal;fill:#000000;fill-opacity:1;stroke:none;stroke-width:1pt;stroke-linecap:butt;stroke-linejoin:miter;stroke-opacity:1;font-family:Bitstream Vera Sans"
         x="-406.52405"
         y="527.92285"
         id="text4047"><tspan
           sodipodi:role="line"
           id="tspan4049"
           x="-406.52405"
           y="527.92285"
           style="letter-spacing:9.33191109"><tspan
             id="tspan4051"
             style="letter-spacing:0.21289776">TM</tspan></tspan></text>
    </g>
    <path
       style="opacity:1;fill:none;fill-opacity:0.75;fill-rule:evenodd;stroke:#000000;stroke-width:1.05155051px;stroke-linecap:butt;stroke-linejoin:miter;stroke-opacity:1"
       d="M 624.38054,736.36525 L 624.38054,884.36267"
       id="path4093" />
    <path
       style="opacity:1;fill:none;fill-opacity:0.75;fill-rule:evenodd;stroke:#000000;stroke-width:1px;stroke-linecap:butt;stroke-linejoin:miter;stroke-opacity:1"
       d="M 588.54477,742.11775 L 588.54477,841.1127"
       id="path4971" />
    <text
       xml:space="preserve"
       style="font-size:12px;font-style:normal;font-weight:normal;fill:#000000;fill-opacity:1;stroke:none;stroke-width:1px;stroke-linecap:butt;stroke-linejoin:miter;stroke-opacity:1;font-family:Bitstream Vera Sans"
       x="583.65387"
       y="895.58075"
       id="text4973"><tspan
         sodipodi:role="line"
         id="tspan4975"
         x="583.65387"
         y="895.58075">Page Number</tspan></text>
    <text
       xml:space="preserve"
       style="font-size:12px;font-style:normal;font-weight:normal;fill:#000000;fill-opacity:1;stroke:none;stroke-width:1px;stroke-linecap:butt;stroke-linejoin:miter;stroke-opacity:1;font-family:Bitstream Vera Sans"
       x="562.78381"
       y="871.17517"
       id="text4977"><tspan
         sodipodi:role="line"
         id="tspan4979"
         x="562.78381"
         y="871.17517">Previous </tspan></text>
    <path
       id="path4981"
       d="M 656.54477,744.11775 L 656.54477,843.1127"
       style="opacity:1;fill:none;fill-opacity:0.75;fill-rule:evenodd;stroke:#000000;stroke-width:1px;stroke-linecap:butt;stroke-linejoin:miter;stroke-opacity:1" />
    <text
       xml:space="preserve"
       style="font-size:12px;font-style:normal;font-weight:normal;fill:#000000;fill-opacity:1;stroke:none;stroke-width:1px;stroke-linecap:butt;stroke-linejoin:miter;stroke-opacity:1;font-family:Bitstream Vera Sans"
       x="641.6366"
       y="871.17511"
       id="text4983"><tspan
         sodipodi:role="line"
         id="tspan4985"
         x="641.6366"
         y="871.17511">Next</tspan></text>
    <text
       xml:space="preserve"
       style="font-size:12px;font-style:normal;font-weight:normal;fill:#000000;fill-opacity:1;stroke:none;stroke-width:1px;stroke-linecap:butt;stroke-linejoin:miter;stroke-opacity:1;font-family:Bitstream Vera Sans"
       x="552.07672"
       y="913.60156"
       id="text4987"><tspan
         sodipodi:role="line"
         id="tspan4989"
         x="552.07672"
         y="913.60156">(Only present if required)</tspan></text>
    <g
       id="g12055"
       transform="translate(-525.0824,296.9848)">
      <rect
         ry="20.506096"
         rx="20.506096"
         y="-148.44722"
         x="333.10825"
         height="87.694916"
         width="169"
         id="rect3164"
         style="opacity:0.28877007;fill:#ffeb38;fill-opacity:1;stroke:none;stroke-width:0.5;stroke-miterlimit:4;stroke-dasharray:none;stroke-dashoffset:0;stroke-opacity:1" />
      <text
         id="text4039"
         y="-124.44722"
         x="342.10825"
         style="font-size:12px;font-style:normal;font-weight:normal;fill:#000000;fill-opacity:1;stroke:none;stroke-width:1px;stroke-linecap:butt;stroke-linejoin:miter;stroke-opacity:1;font-family:Bitstream Vera Sans"
         xml:space="preserve"><tspan
           id="tspan4043"
           y="-124.44722"
           x="342.10825"
           sodipodi:role="line">Note: Links are just for</tspan><tspan
           id="tspan4047"
           y="-109.44722"
           x="342.10825"
           sodipodi:role="line">example, GnomeWeb/</tspan><tspan
           id="tspan4050"
           y="-94.44722"
           x="342.10825"
           sodipodi:role="line">Navigation. They are</tspan><tspan
           id="tspan12053"
           y="-79.44722"
           x="342.10825"
           sodipodi:role="line">the NOT the final terms! </tspan></text>
    </g>
  </g>
  <g
     inkscape:groupmode="layer"
     id="layer5"
     inkscape:label="split">
    <path
       style="fill:none;fill-opacity:0.75;fill-rule:evenodd;stroke:#ffffff;stroke-width:1px;stroke-linecap:butt;stroke-linejoin:miter;stroke-opacity:1"
       d="M 799.15137,143.80491 L 799.15137,713.73297"
       id="path3293" />
  </g>
</svg>
